Análise descritiva nos dados do transporte público de Curitiba-PR
…
data %>% mutate(route = as.factor(route)) %>% group_by(route) %>% summarise(rotas = length(route)) %>% top_n(-20)

## Selecting by rotas

## # A tibble: 21 x 2
##    route rotas
##    <fct> <int>
##  1 1        16
##  2 24       21
##  3 181      20
##  4 213      19
##  5 224       1
##  6 311       2
##  7 321       6
##  8 331       7
##  9 343       1
## 10 360      10
## # … with 11 more rows
…
